Division,WeightClassKg,Place,Name,Team,BodyweightKg,Best3SquatKg,Best3BenchKg,Best3DeadliftKg,TotalKg,Equipment,Event,Sex
Boys,51.71,1,Miguel Arroyo,San Angelo Lake View,51.53,131.54,72.57,156.49,360.61,Single-ply,SBD,M
Boys,51.71,2,Billy Jackson,Odessa,50.53,136.08,83.91,138.35,358.34,Single-ply,SBD,M
Boys,51.71,3,Anthony Lara,Wolfforth Frenship,50.53,127.01,72.57,156.49,356.07,Single-ply,SBD,M
Boys,51.71,4,Avery Gallegos,Plainview,48.99,117.93,68.04,127.01,312.98,Single-ply,SBD,M
Boys,51.71,5,Matthew Tracy,Lubbock Coronado,46.54,111.13,61.23,111.13,283.5,Single-ply,SBD,M
Boys,51.71,6,Noah Perez,Abilene,46.36,70.31,49.9,102.06,222.26,Single-ply,SBD,M
Boys,,NS,Gage Rolon,Abilene Cooper,,,,,,Single-ply,SBD,M
Boys,,NS,Isaiah Cristan,Abilene Cooper,,,,,,Single-ply,SBD,M
Boys,55.79,1,Ignacio Romero,Plainview,54.7,170.1,77.11,174.63,421.84,Single-ply,SBD,M
Boys,55.79,2,Cody Coombs,San Angelo Lake View,54.98,151.95,97.52,151.95,401.43,Single-ply,SBD,M
Boys,55.79,3,Cysco Barrera,Plainview,55.79,145.15,65.77,161.03,371.95,Single-ply,SBD,M
Boys,55.79,4,Landon Nail,Lubbock Cooper,55.25,138.35,79.38,149.69,367.41,Single-ply,SBD,M
Boys,55.79,5,Elijah Zambrano,Plainview,55.43,151.95,70.31,142.88,365.14,Single-ply,SBD,M
Boys,55.79,6,Tucker Craig,Midland,55.7,149.69,81.65,127.01,358.34,Single-ply,SBD,M
Boys,55.79,7,Chris Zuniga,Plainview,54.25,131.54,83.91,136.08,351.53,Single-ply,SBD,M
Boys,55.79,8,Hunter Weaver,Canyon Randall,53.8,127.01,72.57,147.42,347,Single-ply,SBD,M
Boys,55.79,9,Jeffery Davis,Lubbock Coronado,55.79,140.61,61.23,142.88,344.73,Single-ply,SBD,M
Boys,59.87,1,Christian Maldonado,Canyon Randall,58.06,174.63,113.4,172.37,460.4,Single-ply,SBD,M
Boys,59.87,2,Esteban Fierro,Plainview,58.88,167.83,102.06,174.63,444.52,Single-ply,SBD,M
Boys,59.87,3,Derek Adame,Plainview,58.79,158.76,90.72,158.76,408.23,Single-ply,SBD,M
Boys,59.87,4,Cameron Arellano,Wolfforth Frenship,59.42,151.95,86.18,170.1,408.23,Single-ply,SBD,M
Boys,59.87,5,Devan Glover,Midland Lee,58.79,133.81,88.45,181.44,403.7,Single-ply,SBD,M
Boys,59.87,6,Luis Morales,San Angelo Central,59.69,161.03,86.18,156.49,403.7,Single-ply,SBD,M
Boys,59.87,7,Alec Arredondo,Abilene,58.06,151.95,86.18,147.42,385.55,Single-ply,SBD,M
Boys,59.87,8,John Chavez,Plainview,59.51,138.35,86.18,151.95,376.48,Single-ply,SBD,M
Boys,59.87,9,Fox Talamantes,Abilene,58.42,120.2,72.57,122.47,315.25,Single-ply,SBD,M
Boys,59.87,10,Nathaniel Duarte,Odessa,56.15,115.67,68.04,122.47,306.17,Single-ply,SBD,M
Boys,59.87,11,Austin Tobar,Abilene Cooper,56.61,102.06,70.31,115.67,288.03,Single-ply,SBD,M
Boys,59.87,DQ,Christian Rodriguez #6,Abilene Cooper,57.42,106.59,65.77,90.72,,Single-ply,SBD,M
Boys,59.87,DQ,Adrian Velasquez,Wolfforth Frenship,57.88,145.15,97.52,,,Single-ply,SBD,M
Boys,67.13,1,Jerrico Enriquez,Plainview,65.41,192.78,104.33,185.97,483.08,Single-ply,SBD,M
Boys,67.13,2,Zach Soto,Lubbock Coronado,65.5,165.56,106.59,174.63,446.79,Single-ply,SBD,M
Boys,67.13,3,Braidon Clemence,Midland Lee,65.86,156.49,92.99,188.24,437.72,Single-ply,SBD,M
Boys,67.13,4,James Christensen,San Angelo Lake View,67.13,163.29,95.25,163.29,421.84,Single-ply,SBD,M
Boys,67.13,5,Israel Delgado,Midland Lee,67.04,154.22,102.06,149.69,405.97,Single-ply,SBD,M
Boys,67.13,6,Moses Ruzoviyo,Abilene,62.41,131.54,90.72,167.83,390.09,Single-ply,SBD,M
Boys,67.13,7,Noah Orozco,Abilene Cooper,67.04,158.76,81.65,149.69,390.09,Single-ply,SBD,M
Boys,67.13,8,Dalton Jenkins,Plainview,63.59,154.22,74.84,147.42,376.48,Single-ply,SBD,M
Boys,67.13,9,Michael Shubert,Abilene Cooper,65.95,129.27,79.38,167.83,376.48,Single-ply,SBD,M
Boys,67.13,10,Isaac Ortega,Abilene,64.05,140.61,88.45,129.27,358.34,Single-ply,SBD,M
Boys,67.13,11,Zach Walser,Canyon Randall,62.78,138.35,77.11,140.61,356.07,Single-ply,SBD,M
Boys,67.13,DQ,Kasey Dean,Abilene,61.51,129.27,72.57,142.88,,Single-ply,SBD,M
Boys,67.13,DQ,Omar Durate,San Angelo Central,66.04,,,,,Single-ply,SBD,M
Boys,,NS,Jeremy Mireles,San Angelo Lake View,,,,,,Single-ply,SBD,M
Boys,,NS,Garrett Ransom,Midland Lee,,,,,,Single-ply,SBD,M
Boys,,NS,Hayden McCalib,Wolfforth Frenship,,,,,,Single-ply,SBD,M
Boys,74.84,1,Luis Estrada,Plainview,69.85,208.65,124.74,208.65,542.04,Single-ply,SBD,M
Boys,74.84,2,Devin Romero,Abilene,74.3,210.92,99.79,217.72,528.44,Single-ply,SBD,M
Boys,74.84,3,Chase Rheilander,Midland,70.31,181.44,122.47,197.31,501.22,Single-ply,SBD,M
Boys,74.84,4,Mario Martinez,San Angelo Central,73.66,204.12,111.13,183.7,498.95,Single-ply,SBD,M
Boys,74.84,5,Ruben Luna,Midland Lee,68.95,183.7,117.93,183.7,485.34,Single-ply,SBD,M
Boys,74.84,6,John Paul Estrada,Midland,73.12,176.9,127.01,181.44,485.34,Single-ply,SBD,M
Boys,74.84,7,Ian Smith,Abilene,73.48,190.51,95.25,192.78,478.54,Single-ply,SBD,M
Boys,74.84,8,Esteban Zuniga,Lubbock Coronado,74.57,176.9,108.86,183.7,469.47,Single-ply,SBD,M
Boys,74.84,9,Gabe Rodriguez,Lubbock Cooper,71.67,170.1,104.33,172.37,446.79,Single-ply,SBD,M
Boys,74.84,10,Charlie Rodriguez,Plainview,69.4,165.56,97.52,181.44,444.52,Single-ply,SBD,M
Boys,74.84,11,AJ Gonzales,Abilene,73.66,170.1,102.06,167.83,439.98,Single-ply,SBD,M
Boys,,NS,Brad Scott,Canyon Randall,,,,,,Single-ply,SBD,M
Boys,,NS,Zack White,San Angelo Lake View,,,,,,Single-ply,SBD,M
Boys,74.84,DQ,Caleb Ramirez,San Angelo Lake View,74.84,,,,,Single-ply,SBD,M
Boys,,NS,Albert Arroyo,Odessa,,,,,,Single-ply,SBD,M
Boys,82.1,1,Rolando Gill,Plainview,81.28,215.46,124.74,217.72,557.92,Single-ply,SBD,M
Boys,82.1,2,Tyler Gonzales,Midland,76.11,204.12,131.54,195.04,530.7,Single-ply,SBD,M
Boys,82.1,3,Steven Espino,Dumas,80.92,210.92,104.33,215.46,530.7,Single-ply,SBD,M
Boys,82.1,4,Cutter Paris,Canyon Randall,81.83,204.12,120.2,201.85,526.17,Single-ply,SBD,M
Boys,82.1,5,Collin McCullough,Midland,80.29,163.29,136.08,199.58,498.95,Single-ply,SBD,M
Boys,82.1,6,Francisco Muniz,San Angelo Lake View,80.01,163.29,108.86,204.12,476.27,Single-ply,SBD,M
Boys,82.1,7,Aaron Gonzales,Plainview,81.28,170.1,104.33,174.63,449.06,Single-ply,SBD,M
Boys,82.1,8,Shawn Rodriguez,San Angelo Lake View,77.84,172.37,106.59,161.03,439.98,Single-ply,SBD,M
Boys,82.1,9,Donte Mitchell,Abilene Cooper,81.37,158.76,111.13,170.1,439.98,Single-ply,SBD,M
Boys,,NS,Brandon Rodriguez #5,San Angelo Lake View,,,,,,Single-ply,SBD,M
Boys,,NS,Ross Marker,Midland,,,,,,Single-ply,SBD,M
Boys,,NS,Quinten Johnson,Wolfforth Frenship,,,,,,Single-ply,SBD,M
Boys,82.1,DQ,Austin Powell,Plainview,79.47,,,,,Single-ply,SBD,M
Boys,82.1,DQ,Noah Nandin,San Angelo Lake View,80.01,,,,,Single-ply,SBD,M
Boys,82.1,DQ,Brody Schleeter,Lubbock Cooper,78.93,222.26,,,,Single-ply,SBD,M
Boys,89.81,1,Josh Chandler,Midland,86.09,213.19,147.42,217.72,578.33,Single-ply,SBD,M
Boys,89.81,2,Quinten Franks,Lubbock Cooper,88.63,224.53,106.59,233.6,564.72,Single-ply,SBD,M
Boys,89.81,3,Carlos Pina #2,Lubbock Cooper,85.64,229.06,131.54,201.85,562.45,Single-ply,SBD,M
Boys,89.81,4,Anthony Gloria,San Angelo Lake View,88.54,217.72,124.74,210.92,553.38,Single-ply,SBD,M
Boys,89.81,5,Java Smith,San Angelo Lake View,87.18,231.33,113.4,188.24,532.97,Single-ply,SBD,M
Boys,89.81,6,D'Angelo Thomas,Plainview,88.09,204.12,117.93,210.92,532.97,Single-ply,SBD,M
Boys,89.81,7,John Daniel Lopez,San Angelo Central,89.63,195.04,111.13,204.12,510.29,Single-ply,SBD,M
Boys,89.81,8,Actavias Lowry,Abilene Cooper,83.46,183.7,127.01,185.97,496.68,Single-ply,SBD,M
Boys,89.81,9,Jeremy Dominguez,Plainview,88.9,204.12,104.33,185.97,494.42,Single-ply,SBD,M
Boys,89.81,10,David Luera,San Angelo Lake View,89.81,183.7,104.33,197.31,485.34,Single-ply,SBD,M
Boys,,NS,Mason Hubbard,Midland Lee,,,,,,Single-ply,SBD,M
Boys,,NS,Damian Loya,Odessa,,,,,,Single-ply,SBD,M
Boys,,NS,Houston Hance,Abilene Cooper,,,,,,Single-ply,SBD,M
Boys,,NS,Antonio Rangel,Dumas,,,,,,Single-ply,SBD,M
Boys,,NS,Austin Adams,Dumas,,,,,,Single-ply,SBD,M
Boys,89.81,DQ,Angel Nabarette,Midland,84.46,185.97,,,,Single-ply,SBD,M
Boys,99.79,1,Crystin Baston,Plainview,98.43,272.16,163.29,265.35,700.8,Single-ply,SBD,M
Boys,99.79,2,Turner Phillips,Midland,93.17,238.14,147.42,240.4,625.96,Single-ply,SBD,M
Boys,99.79,3,Bolton Huerta,Wolfforth Frenship,96.16,222.26,129.27,222.26,573.79,Single-ply,SBD,M
Boys,99.79,4,Brandon Steele,Lubbock Coronado,94.53,226.8,140.61,204.12,571.53,Single-ply,SBD,M
Boys,99.79,5,Asher Robinson,Wolfforth Frenship,96.34,222.26,127.01,222.26,571.53,Single-ply,SBD,M
Boys,99.79,6,Robert Ramirez,Plainview,92.71,215.46,124.74,229.06,569.26,Single-ply,SBD,M
Boys,99.79,7,Blake Parker,Abilene Cooper,97.89,226.8,136.08,195.04,557.92,Single-ply,SBD,M
Boys,99.79,8,Ryland Madrid,Abilene,92.35,222.26,122.47,208.65,553.38,Single-ply,SBD,M
Boys,99.79,9,O'Ryan Farley,Odessa Permian,96.43,199.58,129.27,222.26,551.11,Single-ply,SBD,M
Boys,99.79,10,Andrew King,Lubbock Coronado,93.26,201.85,113.4,226.8,542.04,Single-ply,SBD,M
Boys,99.79,11,Caden Lafever,Canyon Randall,93.44,199.58,136.08,201.85,537.51,Single-ply,SBD,M
Boys,99.79,12,Rey Dominguez,Plainview,97.89,204.12,120.2,210.92,535.24,Single-ply,SBD,M
Boys,99.79,13,Michael Martinez #6,Abilene,96.34,204.12,120.2,199.58,523.9,Single-ply,SBD,M
Boys,,NS,Victor Del Fierro,Canyon Randall,,,,,,Single-ply,SBD,M
Boys,99.79,DQ,Nick Gonzalez,San Angelo Central,99.16,226.8,,,,Single-ply,SBD,M
Boys,109.77,1,Keoni Garcia,Midland,103.42,272.16,174.63,233.6,680.39,Single-ply,SBD,M
Boys,109.77,2,Roy Abanonu,Plainview,108.59,260.82,154.22,242.67,657.71,Single-ply,SBD,M
Boys,109.77,3,Octavius Vera,Plainview,104.24,260.82,131.54,217.72,610.08,Single-ply,SBD,M
Boys,109.77,4,Jovan Acosta,Dumas,107.59,231.33,108.86,249.48,589.67,Single-ply,SBD,M
Boys,109.77,5,Adan Chavez,Midland Lee,108.59,226.8,124.74,231.33,582.87,Single-ply,SBD,M
Boys,109.77,6,Traver Vliem,Midland,108.68,201.85,151.95,226.8,580.6,Single-ply,SBD,M
Boys,109.77,7,Randy Mendoza,Plainview,105.96,208.65,140.61,208.65,557.92,Single-ply,SBD,M
Boys,109.77,8,Brent Alexander,Abilene Cooper,106.41,226.8,127.01,195.04,548.85,Single-ply,SBD,M
Boys,109.77,9,Gage Holmes,Wolfforth Frenship,108.14,226.8,108.86,213.19,548.85,Single-ply,SBD,M
Boys,109.77,10,Bryce Templeton,Abilene Cooper,106.78,192.78,129.27,192.78,514.83,Single-ply,SBD,M
Boys,,NS,Omar Villanueva,Midland,,,,,,Single-ply,SBD,M
Boys,,NS,Heath Carrell,Lubbock Cooper,,,,,,Single-ply,SBD,M
Boys,,NS,Quentin Weigle,Canyon,,,,,,Single-ply,SBD,M
Boys,,NS,Sam Sentena,San Angelo Lake View,,,,,,Single-ply,SBD,M
Boys,109.77,DQ,Felipe Diaz,Midland Lee,104.24,,,,,Single-ply,SBD,M
Boys,124.74,1,Devon Miller,Midland,119.75,308.44,204.12,294.84,807.39,Single-ply,SBD,M
Boys,124.74,2,Paxton Heiting,Midland,123.01,233.6,192.78,258.55,684.92,Single-ply,SBD,M
Boys,124.74,3,Adriel Flores,Plainview,123.74,290.3,142.88,249.48,682.66,Single-ply,SBD,M
Boys,124.74,4,Donnie Bowers,San Angelo Central,119.93,260.82,136.08,222.26,619.15,Single-ply,SBD,M
Boys,124.74,5,Marcos Bribiesca,Canyon Randall,121.93,244.94,140.61,222.26,607.81,Single-ply,SBD,M
Boys,124.74,6,Jonathan Castaneda,Abilene Cooper,117.66,226.8,136.08,235.87,598.74,Single-ply,SBD,M
Boys,124.74,7,Slayde Anderson,Abilene,118.84,229.06,140.61,222.26,591.94,Single-ply,SBD,M
Boys,124.74,8,Josh Rubalcalba,Odessa Permian,117.75,251.74,138.35,197.31,587.4,Single-ply,SBD,M
Boys,124.74,9,Anthony Arellano,Abilene Cooper,115.76,231.33,138.35,215.46,585.13,Single-ply,SBD,M
Boys,124.74,11,Boomer Warren,Midland Lee,112.04,238.14,124.74,204.12,566.99,Single-ply,SBD,M
Boys,124.74,12,Lucas Flores,Wolfforth Frenship,114.85,235.87,106.59,213.19,555.65,Single-ply,SBD,M
Boys,124.74,1,Jacob Schneider,Lubbock Cooper,112.67,215.46,,,215.46,Single-ply,S,M
Boys,124.74,10,Robert Bellman,Abilene Cooper,113.67,226.8,122.47,222.26,571.53,Single-ply,SBD,M
Boys,,NS,Christian Barkley,Lubbock Cooper,,,,,,Single-ply,SBD,M
Boys,,NS,Marquis Rogers,Midland Lee,,,,,,Single-ply,SBD,M
Boys,124.74+,1,Jesus Verastegui,Abilene,150.5,290.3,167.83,256.28,714.41,Single-ply,SBD,M
Boys,124.74+,2,Braxton Gardner,Midland,136.17,285.76,151.95,267.62,705.34,Single-ply,SBD,M
Boys,124.74+,3,Cesar Juarez,Midland,137.44,288.03,192.78,201.85,682.66,Single-ply,SBD,M
Boys,124.74+,4,Elijah Davis,San Angelo Lake View,161.84,256.28,145.15,238.14,639.57,Single-ply,SBD,M
Boys,124.74+,5,Trevor Townsend,Plainview,131.45,265.35,149.69,213.19,628.23,Single-ply,SBD,M
Boys,124.74+,6,Sergio Rivero,San Angelo Central,135.17,254.01,138.35,215.46,607.81,Single-ply,SBD,M
Boys,124.74+,7,Juan Vasquez #2,Midland,138.98,235.87,156.49,210.92,603.28,Single-ply,SBD,M
Boys,124.74+,8,Desmond Salamanca,San Angelo Central,129.46,222.26,140.61,231.33,594.21,Single-ply,SBD,M
Boys,124.74+,9,Michael Jordan,San Angelo Lake View,133.54,219.99,120.2,240.4,580.6,Single-ply,SBD,M
Boys,124.74+,10,Ruben Leija,Abilene,144.06,210.92,154.22,215.46,580.6,Single-ply,SBD,M
Boys,124.74+,12,Tito Salcido,Midland,125.65,208.65,151.95,197.31,557.92,Single-ply,SBD,M
Boys,124.74+,11,Marquis Lyons,Abilene,125.92,238.14,131.54,190.51,560.19,Single-ply,SBD,M
Boys,,NS,Cedric Smith,San Angelo Central,,,,,,Single-ply,SBD,M
Boys,,NS,Patrick Leyva,Midland Lee,,,,,,Single-ply,SBD,M
Boys,,NS,Pablo Olivares,Odessa Permian,,,,,,Single-ply,SBD,M
